Lab05/HW5/.Xil/Vivado-29160-DESKTOP-PRBRFBN/hw_ila_data_1/zip_work/waveform.vcd
$date
        2019-Nov-28 21:56:01
$end
$version
        Vivado v2018.3 (64-bit)
$end
$timescale
        1ps
$end
$scope module dut $end
$var reg 8 " design_1_i/Net [7:0] $end
$var reg 8 * design_1_i/matrix_processor_0_address [7:0] $end
$var reg 8 2 design_1_i/mux_interface_0_addr_bram [7:0] $end
$var reg 8 : design_1_i/matrix_processor_0_data_out [7:0] $end
$var reg 8 B design_1_i/mux_interface_0_data_in_bram [7:0] $end
$var reg 1 J design_1_i/contral_0_pl_start $end
$var reg 1 K design_1_i/contral_0_write_enable $end
$var reg 1 L design_1_i/matrix_processor_0_done $end
$var reg 1 M design_1_i/matrix_processor_0_write_en $end
$var reg 1 N design_1_i/mux_interface_0_write_en_bram $end
$var reg 1 O design_1_i/proc_sys_reset_0_peripheral_aresetn $end
$var reg 1 P u_ila_0_FCLK_CLK0 $end
$var reg 1 Q _TRIGGER $end
$var reg 1 R _WINDOW $end
$var reg 1 S _GAP $end
$upscope $end
$enddefinitions $end
#0
$dumpvars
b0 "
b11111011 *
b11111011 2
b0 :
b0 B
1J
0K
1L
0M
0N
1O
0P
0Q
1R
0S
$end
#1
b0 *
b0 2
0L
#2
b1 *
b1 2
#3
b1 "
b10 *
b10 2
#4
b10 "
b11 *
b11 2
#5
b11 "
b100 *
b100 2
#6
b100 "
b101 *
b101 2
#7
b1 "
b110 *
b110 2
#8
b10 "
b111 *
b111 2
#9
b11 "
b1000 *
b1000 2
#10
b100 "
b1001 *
b1001 2
#11
b0 "
b1010 *
b1010 2
#12
b11111111 *
b11111111 2
b10 :
b10 B
1M
1N
#13
b11111110 *
b11111110 2
b100 :
b100 B
#14
b11111101 *
b11111101 2
b110 :
b110 B
#15
b11111100 *
b11111100 2
b1000 :
b1000 B
#16
b11111011 *
b11111011 2
b0 :
b0 B
0M
0N
#17
1L
#18
b0 *
b0 2
0L
#19
b1 *
b1 2
#20
b1 "
b10 *
b10 2
#21
b10 "
b11 *
b11 2
#22
b11 "
b100 *
b100 2
#23
b100 "
b101 *
b101 2
#24
b1 "
b110 *
b110 2
#25
b10 "
b111 *
b111 2
#26
b11 "
b1000 *
b1000 2
#27
b100 "
b1001 *
b1001 2
#28
b0 "
b1010 *
b1010 2
#29
b11111111 *
b11111111 2
b10 :
b10 B
1M
1N
#30
b11111110 *
b11111110 2
b100 :
b100 B
#31
b11111101 *
b11111101 2
b110 :
b110 B
#32
b11111100 *
b11111100 2
b1000 :
b1000 B
#33
b11111011 *
b11111011 2
b0 :
b0 B
0M
0N
#34
1L
#35
b0 *
b0 2
0L
#36
b1 *
b1 2
#37
b1 "
b10 *
b10 2
#38
b10 "
b11 *
b11 2
#39
b11 "
b100 *
b100 2
#40
b100 "
b101 *
b101 2
#41
b1 "
b110 *
b110 2
#42
b10 "
b111 *
b111 2
#43
b11 "
b1000 *
b1000 2
#44
b100 "
b1001 *
b1001 2
#45
b0 "
b1010 *
b1010 2
#46
b11111111 *
b11111111 2
b10 :
b10 B
1M
1N
#47
b11111110 *
b11111110 2
b100 :
b100 B
#48
b11111101 *
b11111101 2
b110 :
b110 B
#49
b11111100 *
b11111100 2
b1000 :
b1000 B
#50
b11111011 *
b11111011 2
b0 :
b0 B
0M
0N
#51
1L
#52
b0 *
b0 2
0L
#53
b1 *
b1 2
#54
b1 "
b10 *
b10 2
#55
b10 "
b11 *
b11 2
#56
b11 "
b100 *
b100 2
#57
b100 "
b101 *
b101 2
#58
b1 "
b110 *
b110 2
#59
b10 "
b111 *
b111 2
#60
b11 "
b1000 *
b1000 2
#61
b100 "
b1001 *
b1001 2
#62
b0 "
b1010 *
b1010 2
#63
b11111111 *
b11111111 2
b10 :
b10 B
1M
1N
#64
b11111110 *
b11111110 2
b100 :
b100 B
#65
b11111101 *
b11111101 2
b110 :
b110 B
#66
b11111100 *
b11111100 2
b1000 :
b1000 B
#67
b11111011 *
b11111011 2
b0 :
b0 B
0M
0N
#68
1L
#69
b0 *
b0 2
0L
#70
b1 *
b1 2
#71
b1 "
b10 *
b10 2
#72
b10 "
b11 *
b11 2
#73
b11 "
b100 *
b100 2
#74
b100 "
b101 *
b101 2
#75
b1 "
b110 *
b110 2
#76
b10 "
b111 *
b111 2
#77
b11 "
b1000 *
b1000 2
#78
b100 "
b1001 *
b1001 2
#79
b0 "
b1010 *
b1010 2
#80
b11111111 *
b11111111 2
b10 :
b10 B
1M
1N
#81
b11111110 *
b11111110 2
b100 :
b100 B
#82
b11111101 *
b11111101 2
b110 :
b110 B
#83
b11111100 *
b11111100 2
b1000 :
b1000 B
#84
b11111011 *
b11111011 2
b0 :
b0 B
0M
0N
#85
1L
#86
b0 *
b0 2
0L
#87
b1 *
b1 2
#88
b1 "
b10 *
b10 2
#89
b10 "
b11 *
b11 2
#90
b11 "
b100 *
b100 2
#91
b100 "
b101 *
b101 2
#92
b1 "
b110 *
b110 2
#93
b10 "
b111 *
b111 2
#94
b11 "
b1000 *
b1000 2
#95
b100 "
b1001 *
b1001 2
#96
b0 "
b1010 *
b1010 2
#97
b11111111 *
b11111111 2
b10 :
b10 B
1M
1N
#98
b11111110 *
b11111110 2
b100 :
b100 B
#99
b11111101 *
b11111101 2
b110 :
b110 B
#100
b11111100 *
b11111100 2
b1000 :
b1000 B
#101
b11111011 *
b11111011 2
b0 :
b0 B
0M
0N
#102
1L
#103
b0 *
b0 2
0L
#104
b1 *
b1 2
#105
b1 "
b10 *
b10 2
#106
b10 "
b11 *
b11 2
#107
b11 "
b100 *
b100 2
#108
b100 "
b101 *
b101 2
#109
b1 "
b110 *
b110 2
#110
b10 "
b111 *
b111 2
#111
b11 "
b1000 *
b1000 2
#112
b100 "
b1001 *
b1001 2
#113
b0 "
b1010 *
b1010 2
#114
b11111111 *
b11111111 2
b10 :
b10 B
1M
1N
#115
b11111110 *
b11111110 2
b100 :
b100 B
#116
b11111101 *
b11111101 2
b110 :
b110 B
#117
b11111100 *
b11111100 2
b1000 :
b1000 B
#118
b11111011 *
b11111011 2
b0 :
b0 B
0M
0N
#119
1L
#120
b0 *
b0 2
0L
#121
b1 *
b1 2
#122
b1 "
b10 *
b10 2
#123
b10 "
b11 *
b11 2
#124
b11 "
b100 *
b100 2
#125
b100 "
b101 *
b101 2
#126
b1 "
b110 *
b110 2
#127
b10 "
b111 *
b111 2
#128
b11 "
b1000 *
b1000 2
#129
b100 "
b1001 *
b1001 2
#130
b0 "
b1010 *
b1010 2
#131
b11111111 *
b11111111 2
b10 :
b10 B
1M
1N
#132
b11111110 *
b11111110 2
b100 :
b100 B
#133
b11111101 *
b11111101 2
b110 :
b110 B
#134
b11111100 *
b11111100 2
b1000 :
b1000 B
#135
b11111011 *
b11111011 2
b0 :
b0 B
0M
0N
#136
1L
#137
b0 *
b0 2
0L
#138
b1 *
b1 2
#139
b1 "
b10 *
b10 2
#140
b10 "
b11 *
b11 2
#141
b11 "
b100 *
b100 2
#142
b100 "
b101 *
b101 2
#143
b1 "
b110 *
b110 2
#144
b10 "
b111 *
b111 2
#145
b11 "
b1000 *
b1000 2
#146
b100 "
b1001 *
b1001 2
#147
b0 "
b1010 *
b1010 2
#148
b11111111 *
b11111111 2
b10 :
b10 B
1M
1N
#149
b11111110 *
b11111110 2
b100 :
b100 B
#150
b11111101 *
b11111101 2
b110 :
b110 B
#151
b11111100 *
b11111100 2
b1000 :
b1000 B
#152
b11111011 *
b11111011 2
b0 :
b0 B
0M
0N
#153
1L
#154
b0 *
b0 2
0L
#155
b1 *
b1 2
#156
b1 "
b10 *
b10 2
#157
b10 "
b11 *
b11 2
#158
b11 "
b100 *
b100 2
#159
b100 "
b101 *
b101 2
#160
b1 "
b110 *
b110 2
#161
b10 "
b111 *
b111 2
#162
b11 "
b1000 *
b1000 2
#163
b100 "
b1001 *
b1001 2
#164
b0 "
b1010 *
b1010 2
#165
b11111111 *
b11111111 2
b10 :
b10 B
1M
1N
#166
b11111110 *
b11111110 2
b100 :
b100 B
#167
b11111101 *
b11111101 2
b110 :
b110 B
#168
b11111100 *
b11111100 2
b1000 :
b1000 B
#169
b11111011 *
b11111011 2
b0 :
b0 B
0M
0N
#170
1L
#171
b0 *
b0 2
0L
#172
b1 *
b1 2
#173
b1 "
b10 *
b10 2
#174
b10 "
b11 *
b11 2
#175
b11 "
b100 *
b100 2
#176
b100 "
b101 *
b101 2
#177
b1 "
b110 *
b110 2
#178
b10 "
b111 *
b111 2
#179
b11 "
b1000 *
b1000 2
#180
b100 "
b1001 *
b1001 2
#181
b0 "
b1010 *
b1010 2
#182
b11111111 *
b11111111 2
b10 :
b10 B
1M
1N
#183
b11111110 *
b11111110 2
b100 :
b100 B
#184
b11111101 *
b11111101 2
b110 :
b110 B
#185
b11111100 *
b11111100 2
b1000 :
b1000 B
#186
b11111011 *
b11111011 2
b0 :
b0 B
0M
0N
#187
1L
#188
b0 *
b0 2
0L
#189
b1 *
b1 2
#190
b1 "
b10 *
b10 2
#191
b10 "
b11 *
b11 2
#192
b11 "
b100 *
b100 2
#193
b100 "
b101 *
b101 2
#194
b1 "
b110 *
b110 2
#195
b10 "
b111 *
b111 2
#196
b11 "
b1000 *
b1000 2
#197
b100 "
b1001 *
b1001 2
#198
b0 "
b1010 *
b1010 2
#199
b11111111 *
b11111111 2
b10 :
b10 B
1M
1N
#200
b11111110 *
b11111110 2
b100 :
b100 B
#201
b11111101 *
b11111101 2
b110 :
b110 B
#202
b11111100 *
b11111100 2
b1000 :
b1000 B
#203
b11111011 *
b11111011 2
b0 :
b0 B
0M
0N
#204
1L
#205
b0 *
b0 2
0L
#206
b1 *
b1 2
#207
b1 "
b10 *
b10 2
#208
b10 "
b11 *
b11 2
#209
b11 "
b100 *
b100 2
#210
b100 "
b101 *
b101 2
#211
b1 "
b110 *
b110 2
#212
b10 "
b111 *
b111 2
#213
b11 "
b1000 *
b1000 2
#214
b100 "
b1001 *
b1001 2
#215
b0 "
b1010 *
b1010 2
#216
b11111111 *
b11111111 2
b10 :
b10 B
1M
1N
#217
b11111110 *
b11111110 2
b100 :
b100 B
#218
b11111101 *
b11111101 2
b110 :
b110 B
#219
b11111100 *
b11111100 2
b1000 :
b1000 B
#220
b11111011 *
b11111011 2
b0 :
b0 B
0M
0N
#221
1L
#222
b0 *
b0 2
0L
#223
b1 *
b1 2
#224
b1 "
b10 *
b10 2
#225
b10 "
b11 *
b11 2
#226
b11 "
b100 *
b100 2
#227
b100 "
b101 *
b101 2
#228
b1 "
b110 *
b110 2
#229
b10 "
b111 *
b111 2
#230
b11 "
b1000 *
b1000 2
#231
b100 "
b1001 *
b1001 2
#232
b0 "
b1010 *
b1010 2
#233
b11111111 *
b11111111 2
b10 :
b10 B
1M
1N
#234
b11111110 *
b11111110 2
b100 :
b100 B
#235
b11111101 *
b11111101 2
b110 :
b110 B
#236
b11111100 *
b11111100 2
b1000 :
b1000 B
#237
b11111011 *
b11111011 2
b0 :
b0 B
0M
0N
#238
1L
#239
b0 *
b0 2
0L
#240
b1 *
b1 2
#241
b1 "
b10 *
b10 2
#242
b10 "
b11 *
b11 2
#243
b11 "
b100 *
b100 2
#244
b100 "
b101 *
b101 2
#245
b1 "
b110 *
b110 2
#246
b10 "
b111 *
b111 2
#247
b11 "
b1000 *
b1000 2
#248
b100 "
b1001 *
b1001 2
#249
b0 "
b1010 *
b1010 2
#250
b11111111 *
b11111111 2
b10 :
b10 B
1M
1N
#251
b11111110 *
b11111110 2
b100 :
b100 B
#252
b11111101 *
b11111101 2
b110 :
b110 B
#253
b11111100 *
b11111100 2
b1000 :
b1000 B
#254
b11111011 *
b11111011 2
b0 :
b0 B
0M
0N
#255
1L
#256
b0 *
b0 2
0L
#257
b1 *
b1 2
#258
b1 "
b10 *
b10 2
#259
b10 "
b11 *
b11 2
#260
b11 "
b100 *
b100 2
#261
b100 "
b101 *
b101 2
#262
b1 "
b110 *
b110 2
#263
b10 "
b111 *
b111 2
#264
b11 "
b1000 *
b1000 2
#265
b100 "
b1001 *
b1001 2
#266
b0 "
b1010 *
b1010 2
#267
b11111111 *
b11111111 2
b10 :
b10 B
1M
1N
#268
b11111110 *
b11111110 2
b100 :
b100 B
#269
b11111101 *
b11111101 2
b110 :
b110 B
#270
b11111100 *
b11111100 2
b1000 :
b1000 B
#271
b11111011 *
b11111011 2
b0 :
b0 B
0M
0N
#272
1L
#273
b0 *
b0 2
0L
#274
b1 *
b1 2
#275
b1 "
b10 *
b10 2
#276
b10 "
b11 *
b11 2
#277
b11 "
b100 *
b100 2
#278
b100 "
b101 *
b101 2
#279
b1 "
b110 *
b110 2
#280
b10 "
b111 *
b111 2
#281
b11 "
b1000 *
b1000 2
#282
b100 "
b1001 *
b1001 2
#283
b0 "
b1010 *
b1010 2
#284
b11111111 *
b11111111 2
b10 :
b10 B
1M
1N
#285
b11111110 *
b11111110 2
b100 :
b100 B
#286
b11111101 *
b11111101 2
b110 :
b110 B
#287
b11111100 *
b11111100 2
b1000 :
b1000 B
#288
b11111011 *
b11111011 2
b0 :
b0 B
0M
0N
#289
1L
#290
b0 *
b0 2
0L
#291
b1 *
b1 2
#292
b1 "
b10 *
b10 2
#293
b10 "
b11 *
b11 2
#294
b11 "
b100 *
b100 2
#295
b100 "
b101 *
b101 2
#296
b1 "
b110 *
b110 2
#297
b10 "
b111 *
b111 2
#298
b11 "
b1000 *
b1000 2
#299
b100 "
b1001 *
b1001 2
#300
b0 "
b1010 *
b1010 2
#301
b11111111 *
b11111111 2
b10 :
b10 B
1M
1N
#302
b11111110 *
b11111110 2
b100 :
b100 B
#303
b11111101 *
b11111101 2
b110 :
b110 B
#304
b11111100 *
b11111100 2
b1000 :
b1000 B
#305
b11111011 *
b11111011 2
b0 :
b0 B
0M
0N
#306
1L
#307
b0 *
b0 2
0L
#308
b1 *
b1 2
#309
b1 "
b10 *
b10 2
#310
b10 "
b11 *
b11 2
#311
b11 "
b100 *
b100 2
#312
b100 "
b101 *
b101 2
#313
b1 "
b110 *
b110 2
#314
b10 "
b111 *
b111 2
#315
b11 "
b1000 *
b1000 2
#316
b100 "
b1001 *
b1001 2
#317
b0 "
b1010 *
b1010 2
#318
b11111111 *
b11111111 2
b10 :
b10 B
1M
1N
#319
b11111110 *
b11111110 2
b100 :
b100 B
#320
b11111101 *
b11111101 2
b110 :
b110 B
#321
b11111100 *
b11111100 2
b1000 :
b1000 B
#322
b11111011 *
b11111011 2
b0 :
b0 B
0M
0N
#323
1L
#324
b0 *
b0 2
0L
#325
b1 *
b1 2
#326
b1 "
b10 *
b10 2
#327
b10 "
b11 *
b11 2
#328
b11 "
b100 *
b100 2
#329
b100 "
b101 *
b101 2
#330
b1 "
b110 *
b110 2
#331
b10 "
b111 *
b111 2
#332
b11 "
b1000 *
b1000 2
#333
b100 "
b1001 *
b1001 2
#334
b0 "
b1010 *
b1010 2
#335
b11111111 *
b11111111 2
b10 :
b10 B
1M
1N
#336
b11111110 *
b11111110 2
b100 :
b100 B
#337
b11111101 *
b11111101 2
b110 :
b110 B
#338
b11111100 *
b11111100 2
b1000 :
b1000 B
#339
b11111011 *
b11111011 2
b0 :
b0 B
0M
0N
#340
1L
#341
b0 *
b0 2
0L
#342
b1 *
b1 2
#343
b1 "
b10 *
b10 2
#344
b10 "
b11 *
b11 2
#345
b11 "
b100 *
b100 2
#346
b100 "
b101 *
b101 2
#347
b1 "
b110 *
b110 2
#348
b10 "
b111 *
b111 2
#349
b11 "
b1000 *
b1000 2
#350
b100 "
b1001 *
b1001 2
#351
b0 "
b1010 *
b1010 2
#352
b11111111 *
b11111111 2
b10 :
b10 B
1M
1N
#353
b11111110 *
b11111110 2
b100 :
b100 B
#354
b11111101 *
b11111101 2
b110 :
b110 B
#355
b11111100 *
b11111100 2
b1000 :
b1000 B
#356
b11111011 *
b11111011 2
b0 :
b0 B
0M
0N
#357
1L
#358
b0 *
b0 2
0L
#359
b1 *
b1 2
#360
b1 "
b10 *
b10 2
#361
b10 "
b11 *
b11 2
#362
b11 "
b100 *
b100 2
#363
b100 "
b101 *
b101 2
#364
b1 "
b110 *
b110 2
#365
b10 "
b111 *
b111 2
#366
b11 "
b1000 *
b1000 2
#367
b100 "
b1001 *
b1001 2
#368
b0 "
b1010 *
b1010 2
#369
b11111111 *
b11111111 2
b10 :
b10 B
1M
1N
#370
b11111110 *
b11111110 2
b100 :
b100 B
#371
b11111101 *
b11111101 2
b110 :
b110 B
#372
b11111100 *
b11111100 2
b1000 :
b1000 B
#373
b11111011 *
b11111011 2
b0 :
b0 B
0M
0N
#374
1L
#375
b0 *
b0 2
0L
#376
b1 *
b1 2
#377
b1 "
b10 *
b10 2
#378
b10 "
b11 *
b11 2
#379
b11 "
b100 *
b100 2
#380
b100 "
b101 *
b101 2
#381
b1 "
b110 *
b110 2
#382
b10 "
b111 *
b111 2
#383
b11 "
b1000 *
b1000 2
#384
b100 "
b1001 *
b1001 2
#385
b0 "
b1010 *
b1010 2
#386
b11111111 *
b11111111 2
b10 :
b10 B
1M
1N
#387
b11111110 *
b11111110 2
b100 :
b100 B
#388
b11111101 *
b11111101 2
b110 :
b110 B
#389
b11111100 *
b11111100 2
b1000 :
b1000 B
#390
b11111011 *
b11111011 2
b0 :
b0 B
0M
0N
#391
1L
#392
b0 *
b0 2
0L
#393
b1 *
b1 2
#394
b1 "
b10 *
b10 2
#395
b10 "
b11 *
b11 2
#396
b11 "
b100 *
b100 2
#397
b100 "
b101 *
b101 2
#398
b1 "
b110 *
b110 2
#399
b10 "
b111 *
b111 2
#400
b11 "
b1000 *
b1000 2
#401
b100 "
b1001 *
b1001 2
#402
b0 "
b1010 *
b1010 2
#403
b11111111 *
b11111111 2
b10 :
b10 B
1M
1N
#404
b11111110 *
b11111110 2
b100 :
b100 B
#405
b11111101 *
b11111101 2
b110 :
b110 B
#406
b11111100 *
b11111100 2
b1000 :
b1000 B
#407
b11111011 *
b11111011 2
b0 :
b0 B
0M
0N
#408
1L
#409
b0 *
b0 2
0L
#410
b1 *
b1 2
#411
b1 "
b10 *
b10 2
#412
b10 "
b11 *
b11 2
#413
b11 "
b100 *
b100 2
#414
b100 "
b101 *
b101 2
#415
b1 "
b110 *
b110 2
#416
b10 "
b111 *
b111 2
#417
b11 "
b1000 *
b1000 2
#418
b100 "
b1001 *
b1001 2
#419
b0 "
b1010 *
b1010 2
#420
b11111111 *
b11111111 2
b10 :
b10 B
1M
1N
#421
b11111110 *
b11111110 2
b100 :
b100 B
#422
b11111101 *
b11111101 2
b110 :
b110 B
#423
b11111100 *
b11111100 2
b1000 :
b1000 B
#424
b11111011 *
b11111011 2
b0 :
b0 B
0M
0N
#425
1L
#426
b0 *
b0 2
0L
#427
b1 *
b1 2
#428
b1 "
b10 *
b10 2
#429
b10 "
b11 *
b11 2
#430
b11 "
b100 *
b100 2
#431
b100 "
b101 *
b101 2
#432
b1 "
b110 *
b110 2
#433
b10 "
b111 *
b111 2
#434
b11 "
b1000 *
b1000 2
#435
b100 "
b1001 *
b1001 2
#436
b0 "
b1010 *
b1010 2
#437
b11111111 *
b11111111 2
b10 :
b10 B
1M
1N
#438
b11111110 *
b11111110 2
b100 :
b100 B
#439
b11111101 *
b11111101 2
b110 :
b110 B
#440
b11111100 *
b11111100 2
b1000 :
b1000 B
#441
b11111011 *
b11111011 2
b0 :
b0 B
0M
0N
#442
1L
#443
b0 *
b0 2
0L
#444
b1 *
b1 2
#445
b1 "
b10 *
b10 2
#446
b10 "
b11 *
b11 2
#447
b11 "
b100 *
b100 2
#448
b100 "
b101 *
b101 2
#449
b1 "
b110 *
b110 2
#450
b10 "
b111 *
b111 2
#451
b11 "
b1000 *
b1000 2
#452
b100 "
b1001 *
b1001 2
#453
b0 "
b1010 *
b1010 2
#454
b11111111 *
b11111111 2
b10 :
b10 B
1M
1N
#455
b11111110 *
b11111110 2
b100 :
b100 B
#456
b11111101 *
b11111101 2
b110 :
b110 B
#457
b11111100 *
b11111100 2
b1000 :
b1000 B
#458
b11111011 *
b11111011 2
b0 :
b0 B
0M
0N
#459
1L
#460
b0 *
b0 2
0L
#461
b1 *
b1 2
#462
b1 "
b10 *
b10 2
#463
b10 "
b11 *
b11 2
#464
b11 "
b100 *
b100 2
#465
b100 "
b101 *
b101 2
#466
b1 "
b110 *
b110 2
#467
b10 "
b111 *
b111 2
#468
b11 "
b1000 *
b1000 2
#469
b100 "
b1001 *
b1001 2
#470
b0 "
b1010 *
b1010 2
#471
b11111111 *
b11111111 2
b10 :
b10 B
1M
1N
#472
b11111110 *
b11111110 2
b100 :
b100 B
#473
b11111101 *
b11111101 2
b110 :
b110 B
#474
b11111100 *
b11111100 2
b1000 :
b1000 B
#475
b11111011 *
b11111011 2
b0 :
b0 B
0M
0N
#476
1L
#477
b0 *
b0 2
0L
#478
b1 *
b1 2
#479
b1 "
b10 *
b10 2
#480
b10 "
b11 *
b11 2
#481
b11 "
b100 *
b100 2
#482
b100 "
b101 *
b101 2
#483
b1 "
b110 *
b110 2
#484
b10 "
b111 *
b111 2
#485
b11 "
b1000 *
b1000 2
#486
b100 "
b1001 *
b1001 2
#487
b0 "
b1010 *
b1010 2
#488
b11111111 *
b11111111 2
b10 :
b10 B
1M
1N
#489
b11111110 *
b11111110 2
b100 :
b100 B
#490
b11111101 *
b11111101 2
b110 :
b110 B
#491
b11111100 *
b11111100 2
b1000 :
b1000 B
#492
b11111011 *
b11111011 2
b0 :
b0 B
0M
0N
#493
1L
#494
b0 *
b0 2
0L
#495
b1 *
b1 2
#496
b1 "
b10 *
b10 2
#497
b10 "
b11 *
b11 2
#498
b11 "
b100 *
b100 2
#499
b100 "
b101 *
b101 2
#500
b1 "
b110 *
b110 2
#501
b10 "
b111 *
b111 2
#502
b11 "
b1000 *
b1000 2
#503
b100 "
b1001 *
b1001 2
#504
b0 "
b1010 *
b1010 2
#505
b11111111 *
b11111111 2
b10 :
b10 B
1M
1N
#506
b11111110 *
b11111110 2
b100 :
b100 B
#507
b11111101 *
b11111101 2
b110 :
b110 B
#508
b11111100 *
b11111100 2
b1000 :
b1000 B
#509
b11111011 *
b11111011 2
b0 :
b0 B
0M
0N
#510
1L
#511
b0 *
b0 2
0L
#512
b1 *
b1 2
1Q
#513
b1 "
b10 *
b10 2
#514
b10 "
b11 *
b11 2
#515
b11 "
b100 *
b100 2
#516
b100 "
b101 *
b101 2
#517
b1 "
b110 *
b110 2
#518
b10 "
b111 *
b111 2
#519
b11 "
b1000 *
b1000 2
#520
b100 "
b1001 *
b1001 2
#521
b0 "
b1010 *
b1010 2
#522
b11111111 *
b11111111 2
b10 :
b10 B
1M
1N
#523
b11111110 *
b11111110 2
b100 :
b100 B
#524
b11111101 *
b11111101 2
b110 :
b110 B
#525
b11111100 *
b11111100 2
b1000 :
b1000 B
#526
b11111011 *
b11111011 2
b0 :
b0 B
0M
0N
#527
1L
#528
b0 *
b0 2
0L
#529
b1 *
b1 2
#530
b1 "
b10 *
b10 2
#531
b10 "
b11 *
b11 2
#532
b11 "
b100 *
b100 2
#533
b100 "
b101 *
b101 2
#534
b1 "
b110 *
b110 2
#535
b10 "
b111 *
b111 2
#536
b11 "
b1000 *
b1000 2
#537
b100 "
b1001 *
b1001 2
#538
b0 "
b1010 *
b1010 2
#539
b11111111 *
b11111111 2
b10 :
b10 B
1M
1N
#540
b11111110 *
b11111110 2
b100 :
b100 B
#541
b11111101 *
b11111101 2
b110 :
b110 B
#542
b11111100 *
b11111100 2
b1000 :
b1000 B
#543
b11111011 *
b11111011 2
b0 :
b0 B
0M
0N
#544
1L
#545
b0 *
b0 2
0L
#546
b1 *
b1 2
#547
b1 "
b10 *
b10 2
#548
b10 "
b11 *
b11 2
#549
b11 "
b100 *
b100 2
#550
b100 "
b101 *
b101 2
#551
b1 "
b110 *
b110 2
#552
b10 "
b111 *
b111 2
#553
b11 "
b1000 *
b1000 2
#554
b100 "
b1001 *
b1001 2
#555
b0 "
b1010 *
b1010 2
#556
b11111111 *
b11111111 2
b10 :
b10 B
1M
1N
#557
b11111110 *
b11111110 2
b100 :
b100 B
#558
b11111101 *
b11111101 2
b110 :
b110 B
#559
b11111100 *
b11111100 2
b1000 :
b1000 B
#560
b11111011 *
b11111011 2
b0 :
b0 B
0M
0N
#561
1L
#562
b0 *
b0 2
0L
#563
b1 *
b1 2
#564
b1 "
b10 *
b10 2
#565
b10 "
b11 *
b11 2
#566
b11 "
b100 *
b100 2
#567
b100 "
b101 *
b101 2
#568
b1 "
b110 *
b110 2
#569
b10 "
b111 *
b111 2
#570
b11 "
b1000 *
b1000 2
#571
b100 "
b1001 *
b1001 2
#572
b0 "
b1010 *
b1010 2
#573
b11111111 *
b11111111 2
b10 :
b10 B
1M
1N
#574
b11111110 *
b11111110 2
b100 :
b100 B
#575
b11111101 *
b11111101 2
b110 :
b110 B
#576
b11111100 *
b11111100 2
b1000 :
b1000 B
#577
b11111011 *
b11111011 2
b0 :
b0 B
0M
0N
#578
1L
#579
b0 *
b0 2
0L
#580
b1 *
b1 2
#581
b1 "
b10 *
b10 2
#582
b10 "
b11 *
b11 2
#583
b11 "
b100 *
b100 2
#584
b100 "
b101 *
b101 2
#585
b1 "
b110 *
b110 2
#586
b10 "
b111 *
b111 2
#587
b11 "
b1000 *
b1000 2
#588
b100 "
b1001 *
b1001 2
#589
b0 "
b1010 *
b1010 2
#590
b11111111 *
b11111111 2
b10 :
b10 B
1M
1N
#591
b11111110 *
b11111110 2
b100 :
b100 B
#592
b11111101 *
b11111101 2
b110 :
b110 B
#593
b11111100 *
b11111100 2
b1000 :
b1000 B
#594
b11111011 *
b11111011 2
b0 :
b0 B
0M
0N
#595
1L
#596
b0 *
b0 2
0L
#597
b1 *
b1 2
#598
b1 "
b10 *
b10 2
#599
b10 "
b11 *
b11 2
#600
b11 "
b100 *
b100 2
#601
b100 "
b101 *
b101 2
#602
b1 "
b110 *
b110 2
#603
b10 "
b111 *
b111 2
#604
b11 "
b1000 *
b1000 2
#605
b100 "
b1001 *
b1001 2
#606
b0 "
b1010 *
b1010 2
#607
b11111111 *
b11111111 2
b10 :
b10 B
1M
1N
#608
b11111110 *
b11111110 2
b100 :
b100 B
#609
b11111101 *
b11111101 2
b110 :
b110 B
#610
b11111100 *
b11111100 2
b1000 :
b1000 B
#611
b11111011 *
b11111011 2
b0 :
b0 B
0M
0N
#612
1L
#613
b0 *
b0 2
0L
#614
b1 *
b1 2
#615
b1 "
b10 *
b10 2
#616
b10 "
b11 *
b11 2
#617
b11 "
b100 *
b100 2
#618
b100 "
b101 *
b101 2
#619
b1 "
b110 *
b110 2
#620
b10 "
b111 *
b111 2
#621
b11 "
b1000 *
b1000 2
#622
b100 "
b1001 *
b1001 2
#623
b0 "
b1010 *
b1010 2
#624
b11111111 *
b11111111 2
b10 :
b10 B
1M
1N
#625
b11111110 *
b11111110 2
b100 :
b100 B
#626
b11111101 *
b11111101 2
b110 :
b110 B
#627
b11111100 *
b11111100 2
b1000 :
b1000 B
#628
b11111011 *
b11111011 2
b0 :
b0 B
0M
0N
#629
1L
#630
b0 *
b0 2
0L
#631
b1 *
b1 2
#632
b1 "
b10 *
b10 2
#633
b10 "
b11 *
b11 2
#634
b11 "
b100 *
b100 2
#635
b100 "
b101 *
b101 2
#636
b1 "
b110 *
b110 2
#637
b10 "
b111 *
b111 2
#638
b11 "
b1000 *
b1000 2
#639
b100 "
b1001 *
b1001 2
#640
b0 "
b1010 *
b1010 2
#641
b11111111 *
b11111111 2
b10 :
b10 B
1M
1N
#642
b11111110 *
b11111110 2
b100 :
b100 B
#643
b11111101 *
b11111101 2
b110 :
b110 B
#644
b11111100 *
b11111100 2
b1000 :
b1000 B
#645
b11111011 *
b11111011 2
b0 :
b0 B
0M
0N
#646
1L
#647
b0 *
b0 2
0L
#648
b1 *
b1 2
#649
b1 "
b10 *
b10 2
#650
b10 "
b11 *
b11 2
#651
b11 "
b100 *
b100 2
#652
b100 "
b101 *
b101 2
#653
b1 "
b110 *
b110 2
#654
b10 "
b111 *
b111 2
#655
b11 "
b1000 *
b1000 2
#656
b100 "
b1001 *
b1001 2
#657
b0 "
b1010 *
b1010 2
#658
b11111111 *
b11111111 2
b10 :
b10 B
1M
1N
#659
b11111110 *
b11111110 2
b100 :
b100 B
#660
b11111101 *
b11111101 2
b110 :
b110 B
#661
b11111100 *
b11111100 2
b1000 :
b1000 B
#662
b11111011 *
b11111011 2
b0 :
b0 B
0M
0N
#663
1L
#664
b0 *
b0 2
0L
#665
b1 *
b1 2
#666
b1 "
b10 *
b10 2
#667
b10 "
b11 *
b11 2
#668
b11 "
b100 *
b100 2
#669
b100 "
b101 *
b101 2
#670
b1 "
b110 *
b110 2
#671
b10 "
b111 *
b111 2
#672
b11 "
b1000 *
b1000 2
#673
b100 "
b1001 *
b1001 2
#674
b0 "
b1010 *
b1010 2
#675
b11111111 *
b11111111 2
b10 :
b10 B
1M
1N
#676
b11111110 *
b11111110 2
b100 :
b100 B
#677
b11111101 *
b11111101 2
b110 :
b110 B
#678
b11111100 *
b11111100 2
b1000 :
b1000 B
#679
b11111011 *
b11111011 2
b0 :
b0 B
0M
0N
#680
1L
#681
b0 *
b0 2
0L
#682
b1 *
b1 2
#683
b1 "
b10 *
b10 2
#684
b10 "
b11 *
b11 2
#685
b11 "
b100 *
b100 2
#686
b100 "
b101 *
b101 2
#687
b1 "
b110 *
b110 2
#688
b10 "
b111 *
b111 2
#689
b11 "
b1000 *
b1000 2
#690
b100 "
b1001 *
b1001 2
#691
b0 "
b1010 *
b1010 2
#692
b11111111 *
b11111111 2
b10 :
b10 B
1M
1N
#693
b11111110 *
b11111110 2
b100 :
b100 B
